{
  "page_count": 5,
  "total_records": 235,
  "page_number": 1,
  "page_size": 2,
  "users": [
    {
      "email": "test@abc.com ",
      "id": "dsfs23css23",
      "created_at": "2012-11-25T12:00:00Z",
      "first_name": "Lucy",
      "last_name": "Li",
      "type": 1,
      "pic_url": "https://www.zoom.us/p/bNsPi", 
      "disable_chat": false,
      "enable_e2e_encryption": false,
      "enable_silent_mode": false,
      "disable_group_hd": false,
      "disable_recording": false,
      "verified": 0,
      "pmi": 0,
      "meeting_capacity": 0,
      "enable_webinar":false,
      "enable_large":false,
      "disable_feedback":false,
      "disable_jbh_reminder": true,
      "dept":"Engineer",
      "timezone": "America/Los_Angeles",
      "token":""
    },
    {
      "email": "test2@abc.com ",
      "id": "dsfs23css23",
      "created_at": "2012-11-25T12:00:00Z",
      "first_name": "Lily",
      "last_name": "Sun",
      "type": 2,
      "pic_url": "https://www.zoom.us/p/bNsPi", 
      "disable_chat": false,
      "enable_e2e_encryption": false,
      "enable_silent_mode": false,
      "disable_group_hd": false,
      "disable_recording": false,
      "verified": 0,
      "pmi": 0,
      "meeting_capacity": 0,
      "enable_webinar":false,
      "enable_large":false,
      "disable_feedback":false,
      "disable_jbh_reminder": true,
      "dept":"Engineer",
      "timezone": "America/Los_Angeles",
      "token":""
    }
  ]
}