{
  "page_count": 5,
  "total_records": 235,
  "page_number": 1,
  "page_size": 50,
  "meetings": [
    {
      "uuid": "unique_id",
      "id": "123456789",
      "start_url": "https://zoom.us/s/123456789?zak=xxxxxx",
      "join_url": "https://zoom.us/j/123456789",
      "created_at": "2012-11-25T12:00:00Z",
      "host_id": "unique_id",
      "topic": "Topic for this meeting",
      "type": 2,
      "start_time": "2012-11-25T12:00:00Z",
      "duration": 30,
      "timezone": "America/Los_Angeles",
      "password": "123",
      "h323_password": "123456",
      "option_jbh": false,
      "option_start_type": "video",
      "option_host_video": false,
      "option_participants_video": false,
      "option_audio": "both",
      "option_enforce_login": false,
      "option_enforce_login_domains ": "",
      "option_alternative_hosts": "",
      "status": 0
    }
  ]
}
